module bitbucket.org/to-increase/go-context

require (
	bitbucket.org/to-increase/go-auth v0.0.0-20181122131015-ca4d9e554d8d
	bitbucket.org/to-increase/go-logger v1.0.0
	bitbucket.org/to-increase/go-sdk v1.0.6
	bitbucket.org/to-increase/go-trn v1.0.1
	github.com/labstack/echo v3.3.5+incompatible
)
